^C:\USERS\MACHYU\DESKTOP\USU_SUMMER_2020\CS-6890\CSES\1648\1648\MAIN.CPP
C:\USERS\MACHYU\DESKTOP\USU_SUMMER_2020\CS-6890\CSES\1648\1648\DEBUG\VC140.PDB
C:\USERS\MACHYU\DESKTOP\USU_SUMMER_2020\CS-6890\CSES\1648\1648\DEBUG\VC140.IDB
C:\USERS\MACHYU\DESKTOP\USU_SUMMER_2020\CS-6890\CSES\1648\1648\DEBUG\MAIN.OBJ
^C:\USERS\MACHYU\DESKTOP\USU_SUMMER_2020\CS-6890\CSES\1648\1648\MAIN.CPP|C:\USERS\MACHYU\DESKTOP\USU_SUMMER_2020\CS-6890\CSES\1648\1648\TEST.TXT
C:\USERS\MACHYU\DESKTOP\USU_SUMMER_2020\CS-6890\CSES\1648\1648\DEBUG\VC140.PDB
C:\USERS\MACHYU\DESKTOP\USU_SUMMER_2020\CS-6890\CSES\1648\1648\DEBUG\VC140.IDB
C:\USERS\MACHYU\DESKTOP\USU_SUMMER_2020\CS-6890\CSES\1648\1648\DEBUG\TEST.OBJ
^C:\USERS\MACHYU\DESKTOP\USU_SUMMER_2020\CS-6890\CSES\1648\1648\TEST.TXT
C:\USERS\MACHYU\DESKTOP\USU_SUMMER_2020\CS-6890\CSES\1648\1648\DEBUG\VC140.PDB
C:\USERS\MACHYU\DESKTOP\USU_SUMMER_2020\CS-6890\CSES\1648\1648\DEBUG\VC140.IDB
C:\USERS\MACHYU\DESKTOP\USU_SUMMER_2020\CS-6890\CSES\1648\1648\DEBUG\TEST.OBJ
