^C:\USERS\MACHYU\DESKTOP\USU_SUMMER_2020\CS-6890\CSES\1619\1619\DEBUG\MAIN.OBJ
C:\USERS\MACHYU\DESKTOP\USU_SUMMER_2020\CS-6890\CSES\1619\DEBUG\1619.ILK
C:\USERS\MACHYU\DESKTOP\USU_SUMMER_2020\CS-6890\CSES\1619\DEBUG\1619.EXE
C:\USERS\MACHYU\DESKTOP\USU_SUMMER_2020\CS-6890\CSES\1619\DEBUG\1619.PDB
